{
    "linda": {
        "password": "$2y$10$2ZbouTyiEVjR9UQIRrqv4OlXrQXRTGSE5SGPmI4aWkIi5OVLTXIve",
        "e-mail": "linda@linda.com"
    },
    "alex": {
        "password": "$2y$10$n1DjlCzqkrNneKit2LEDruKQ3ylCEVgEusPjZklcIUrq\/f9aNHdqC",
        "e-mail": "alex@alex.com"
    },
    "name": {
        "password": "$2y$10$4CDw8zWvOmHf4fGOG6TGye4HIfg2LKiqHGUgbFTK1XjEH5yDKjiuW",
        "e-mail": "af@fda.com"
    },
    "alext": {
        "password": "$2y$10$DN62YHV2kF8ZZM6AW9ptxuLJfgp0Lq88XVA2P5Are0MhKBKu7Yk7u",
        "e-mail": "1234@com"
    },
    "Mia": {
        "password": "$2y$10$DWDrRNHZNZoTfMYtKqyJKuKIiYtEyF\/frEDeqM\/ij2nfLEUuSElb2",
        "e-mail": "af@fda.com"
    },
    "me": {
        "password": "$2y$10$n0Q9PXWRfhhzcr6qTpeqd.hiMQJqKXgLuUDqA5Iz4ySclQPZasnHa",
        "e-mail": "mail2@neco"
    },
    "name2": {
        "password": "$2y$10$YqDZWNL7howxZi5QY37SxexE6JrWM0EnDl4\/wPS8YSAYyREYWB12S",
        "e-mail": "mail2@neco"
    },
    "name1": {
        "password": "$2y$10$xLn.Z41daW.vp6X\/gsuXmePVCT.vvQ5T0FzgBVk5RoWIOb3nb5QC2",
        "e-mail": "mail2@neco"
    },
    "newname": {
        "password": "$2y$10$7GvBMz24dPo7B8\/xwd8lvuOzWsAXcKXKNllWGuC7zE4Rc\/9zRlDw2",
        "e-mail": "mail2@neco"
    }
}